%YAML 1.1
%TAG !u! tag:unity3d.com,2011:
--- !u!74 &7400000
AnimationClip:
  m_ObjectHideFlags: 0
  m_CorrespondingSourceObject: {fileID: 0}
  m_PrefabInstance: {fileID: 0}
  m_PrefabAsset: {fileID: 0}
  m_Name: GranyAttack
  serializedVersion: 6
  m_Legacy: 0
  m_Compressed: 0
  m_UseHighQualityCurve: 1
  m_RotationCurves: []
  m_CompressedRotationCurves: []
  m_EulerCurves: []
  m_PositionCurves: []
  m_ScaleCurves: []
  m_FloatCurves: []
  m_PPtrCurves:
  - curve:
    - time: 0
      value: {fileID: 21300000, guid: fdb10e6eed283ef4c8ef86a2cb86560b, type: 3}
    - time: 0.11666667
      value: {fileID: 21300000, guid: f238c81b3eb983442b26b31cc2797a13, type: 3}
    - time: 0.25
      value: {fileID: 21300000, guid: 5d73e706a7b03ac4f9c34409ede88ba1, type: 3}
    - time: 0.38333333
      value: {fileID: 21300000, guid: ed5f7397b356b994e95aac9f828e00c9, type: 3}
    - time: 0.5
      value: {fileID: 21300000, guid: 1b6f548589d6ada4cbc0ed8441d4a2e1, type: 3}
    attribute: m_Sprite
    path: 
    classID: 212
    script: {fileID: 0}
  m_SampleRate: 60
  m_WrapMode: 0
  m_Bounds:
    m_Center: {x: 0, y: 0, z: 0}
    m_Extent: {x: 0, y: 0, z: 0}
  m_ClipBindingConstant:
    genericBindings:
    - serializedVersion: 2
      path: 0
      attribute: 0
      script: {fileID: 0}
      typeID: 212
      customType: 23
      isPPtrCurve: 1
    pptrCurveMapping:
    - {fileID: 21300000, guid: fdb10e6eed283ef4c8ef86a2cb86560b, type: 3}
    - {fileID: 21300000, guid: f238c81b3eb983442b26b31cc2797a13, type: 3}
    - {fileID: 21300000, guid: 5d73e706a7b03ac4f9c34409ede88ba1, type: 3}
    - {fileID: 21300000, guid: ed5f7397b356b994e95aac9f828e00c9, type: 3}
    - {fileID: 21300000, guid: 1b6f548589d6ada4cbc0ed8441d4a2e1, type: 3}
  m_AnimationClipSettings:
    serializedVersion: 2
    m_AdditiveReferencePoseClip: {fileID: 0}
    m_AdditiveReferencePoseTime: 0
    m_StartTime: 0
    m_StopTime: 0.51666665
    m_OrientationOffsetY: 0
    m_Level: 0
    m_CycleOffset: 0
    m_HasAdditiveReferencePose: 0
    m_LoopTime: 0
    m_LoopBlend: 0
    m_LoopBlendOrientation: 0
    m_LoopBlendPositionY: 0
    m_LoopBlendPositionXZ: 0
    m_KeepOriginalOrientation: 0
    m_KeepOriginalPositionY: 1
    m_KeepOriginalPositionXZ: 0
    m_HeightFromFeet: 0
    m_Mirror: 0
  m_EditorCurves: []
  m_EulerEditorCurves: []
  m_HasGenericRootTransform: 0
  m_HasMotionFloatCurves: 0
  m_Events: []
