%YAML 1.1
%TAG !u! tag:unity3d.com,2011:
--- !u!74 &7400000
AnimationClip:
  m_ObjectHideFlags: 0
  m_CorrespondingSourceObject: {fileID: 0}
  m_PrefabInstance: {fileID: 0}
  m_PrefabAsset: {fileID: 0}
  m_Name: GrayCatsAnim
  serializedVersion: 6
  m_Legacy: 0
  m_Compressed: 0
  m_UseHighQualityCurve: 1
  m_RotationCurves: []
  m_CompressedRotationCurves: []
  m_EulerCurves: []
  m_PositionCurves: []
  m_ScaleCurves: []
  m_FloatCurves: []
  m_PPtrCurves:
  - curve:
    - time: 0
      value: {fileID: 21300000, guid: 0b28b03a8972c8c4e9c926b7d03b976a, type: 3}
    - time: 0.1
      value: {fileID: 21300000, guid: 45bc5fde5004b014194ed4f6888cdadb, type: 3}
    - time: 0.21666667
      value: {fileID: 21300000, guid: b7e5172959206394bbadf347432c82a3, type: 3}
    - time: 0.3
      value: {fileID: 21300000, guid: 4180f2013c9d5f44bbbd4fae8d13fa66, type: 3}
    - time: 0.41666666
      value: {fileID: 21300000, guid: 0bd38a0093464e44088de5805f28b6e7, type: 3}
    - time: 0.51666665
      value: {fileID: 21300000, guid: 67bcf4a53435f4f468f1caceac314b1a, type: 3}
    attribute: m_Sprite
    path: 
    classID: 212
    script: {fileID: 0}
  m_SampleRate: 60
  m_WrapMode: 0
  m_Bounds:
    m_Center: {x: 0, y: 0, z: 0}
    m_Extent: {x: 0, y: 0, z: 0}
  m_ClipBindingConstant:
    genericBindings:
    - serializedVersion: 2
      path: 0
      attribute: 0
      script: {fileID: 0}
      typeID: 212
      customType: 23
      isPPtrCurve: 1
    pptrCurveMapping:
    - {fileID: 21300000, guid: 0b28b03a8972c8c4e9c926b7d03b976a, type: 3}
    - {fileID: 21300000, guid: 45bc5fde5004b014194ed4f6888cdadb, type: 3}
    - {fileID: 21300000, guid: b7e5172959206394bbadf347432c82a3, type: 3}
    - {fileID: 21300000, guid: 4180f2013c9d5f44bbbd4fae8d13fa66, type: 3}
    - {fileID: 21300000, guid: 0bd38a0093464e44088de5805f28b6e7, type: 3}
    - {fileID: 21300000, guid: 67bcf4a53435f4f468f1caceac314b1a, type: 3}
  m_AnimationClipSettings:
    serializedVersion: 2
    m_AdditiveReferencePoseClip: {fileID: 0}
    m_AdditiveReferencePoseTime: 0
    m_StartTime: 0
    m_StopTime: 0.5333333
    m_OrientationOffsetY: 0
    m_Level: 0
    m_CycleOffset: 0
    m_HasAdditiveReferencePose: 0
    m_LoopTime: 1
    m_LoopBlend: 0
    m_LoopBlendOrientation: 0
    m_LoopBlendPositionY: 0
    m_LoopBlendPositionXZ: 0
    m_KeepOriginalOrientation: 0
    m_KeepOriginalPositionY: 1
    m_KeepOriginalPositionXZ: 0
    m_HeightFromFeet: 0
    m_Mirror: 0
  m_EditorCurves: []
  m_EulerEditorCurves: []
  m_HasGenericRootTransform: 0
  m_HasMotionFloatCurves: 0
  m_Events: []
